^C:\USERS\ASUS\DOCUMENTS\VISUAL STUDIO 2012\PROJECTS\DYNAMOTIONCUSTOMSAMPLEPJT\DYNAMOTIONCUSTOMSAMPLEPJT\RELEASE\DYNAMOTION_CUSTOM_CLIENT.OBJ|C:\USERS\ASUS\DOCUMENTS\VISUAL STUDIO 2012\PROJECTS\DYNAMOTIONCUSTOMSAMPLEPJT\DYNAMOTIONCUSTOMSAMPLEPJT\RELEASE\EXTAPI.OBJ|C:\USERS\ASUS\DOCUMENTS\VISUAL STUDIO 2012\PROJECTS\DYNAMOTIONCUSTOMSAMPLEPJT\DYNAMOTIONCUSTOMSAMPLEPJT\RELEASE\EXTAPIPLATFORM.OBJ|C:\USERS\ASUS\DOCUMENTS\VISUAL STUDIO 2012\PROJECTS\DYNAMOTIONCUSTOMSAMPLEPJT\DYNAMOTIONCUSTOMSAMPLEPJT\RELEASE\MAIN.OBJ
/ERRORREPORT:PROMPT /OUT:"C:\Users\asus\Documents\Visual Studio 2012\Projects\DynamotionCustomSamplePJT\Release\DynamotionCustomSamplePJT.exe" /NOLOGO kernel32.lib user32.lib gdi32.lib winspool.lib comdlg32.lib advapi32.lib shell32.lib ole32.lib oleaut32.lib uuid.lib odbc32.lib odbccp32.lib /MANIFEST /ManifestFile:"Release\DynamotionCustomSamplePJT.exe.intermediate.manifest" /MANIFESTUAC:"level='asInvoker' uiAccess='false'" /DEBUG /PDB:"C:\Users\asus\Documents\Visual Studio 2012\Projects\DynamotionCustomSamplePJT\Release\DynamotionCustomSamplePJT.pdb" /OPT:REF /OPT:ICF /LTCG /TLBID:1 /DYNAMICBASE /NXCOMPAT /IMPLIB:"C:\Users\asus\Documents\Visual Studio 2012\Projects\DynamotionCustomSamplePJT\Release\DynamotionCustomSamplePJT.lib" /MACHINE:X86 Release\main.obj
Release\extApi.obj
Release\extApiPlatform.obj
Release\dynamotion_custom_client.obj
